('/workspace/Jarvis-v1/voice-assistant/dist/voice_assistant',
 True,
 False,
 False,
 None,
 None,
 False,
 False,
 None,
 True,
 False,
 None,
 None,
 None,
 '/workspace/Jarvis-v1/voice-assistant/build/voice_assistant/voice_assistant.pkg',
 [('pyi-contents-directory _internal', '', 'OPTION'),
  ('PYZ-00.pyz',
   '/workspace/Jarvis-v1/voice-assistant/build/voice_assistant/PYZ-00.pyz',
   'PYZ'),
  ('lib-dynload/_struct.cpython-312-x86_64-linux-gnu.so',
   '/home/gitpod/.pyenv/versions/3.12.1/lib/python3.12/lib-dynload/_struct.cpython-312-x86_64-linux-gnu.so',
   'EXTENSION'),
  ('lib-dynload/zlib.cpython-312-x86_64-linux-gnu.so',
   '/home/gitpod/.pyenv/versions/3.12.1/lib/python3.12/lib-dynload/zlib.cpython-312-x86_64-linux-gnu.so',
   'EXTENSION'),
  ('struct',
   '/workspace/Jarvis-v1/voice-assistant/build/voice_assistant/localpycs/struct.pyc',
   'PYMODULE'),
  ('pyimod01_archive',
   '/workspace/Jarvis-v1/voice-assistant/build/voice_assistant/localpycs/pyimod01_archive.pyc',
   'PYMODULE'),
  ('pyimod02_importers',
   '/workspace/Jarvis-v1/voice-assistant/build/voice_assistant/localpycs/pyimod02_importers.pyc',
   'PYMODULE'),
  ('pyimod03_ctypes',
   '/workspace/Jarvis-v1/voice-assistant/build/voice_assistant/localpycs/pyimod03_ctypes.pyc',
   'PYMODULE'),
  ('pyiboot01_bootstrap',
   '/workspace/.pyenv_mirror/user/current/lib/python3.12/site-packages/PyInstaller/loader/pyiboot01_bootstrap.py',
   'PYSOURCE'),
  ('pyi_rth_inspect',
   '/workspace/.pyenv_mirror/user/current/lib/python3.12/site-packages/PyInstaller/hooks/rthooks/pyi_rth_inspect.py',
   'PYSOURCE'),
  ('pyi_rth_pkgutil',
   '/workspace/.pyenv_mirror/user/current/lib/python3.12/site-packages/PyInstaller/hooks/rthooks/pyi_rth_pkgutil.py',
   'PYSOURCE'),
  ('pyi_rth_multiprocessing',
   '/workspace/.pyenv_mirror/user/current/lib/python3.12/site-packages/PyInstaller/hooks/rthooks/pyi_rth_multiprocessing.py',
   'PYSOURCE'),
  ('pyi_rth_setuptools',
   '/workspace/.pyenv_mirror/user/current/lib/python3.12/site-packages/PyInstaller/hooks/rthooks/pyi_rth_setuptools.py',
   'PYSOURCE'),
  ('pyi_rth_pkgres',
   '/workspace/.pyenv_mirror/user/current/lib/python3.12/site-packages/PyInstaller/hooks/rthooks/pyi_rth_pkgres.py',
   'PYSOURCE'),
  ('voice_assistant',
   '/workspace/Jarvis-v1/voice-assistant/voice_assistant.py',
   'PYSOURCE'),
  ('speech_recognition/flac-linux-x86_64',
   '/workspace/.pyenv_mirror/user/current/lib/python3.12/site-packages/speech_recognition/flac-linux-x86_64',
   'BINARY'),
  ('speech_recognition/flac-linux-x86',
   '/workspace/.pyenv_mirror/user/current/lib/python3.12/site-packages/speech_recognition/flac-linux-x86',
   'BINARY'),
  ('libpython3.12.so.1.0',
   '/home/gitpod/.pyenv/versions/3.12.1/lib/libpython3.12.so.1.0',
   'BINARY'),
  ('libespeak.so.1', '/lib/x86_64-linux-gnu/libespeak.so.1', 'BINARY'),
  ('lib-dynload/grp.cpython-312-x86_64-linux-gnu.so',
   '/home/gitpod/.pyenv/versions/3.12.1/lib/python3.12/lib-dynload/grp.cpython-312-x86_64-linux-gnu.so',
   'EXTENSION'),
  ('lib-dynload/math.cpython-312-x86_64-linux-gnu.so',
   '/home/gitpod/.pyenv/versions/3.12.1/lib/python3.12/lib-dynload/math.cpython-312-x86_64-linux-gnu.so',
   'EXTENSION'),
  ('lib-dynload/select.cpython-312-x86_64-linux-gnu.so',
   '/home/gitpod/.pyenv/versions/3.12.1/lib/python3.12/lib-dynload/select.cpython-312-x86_64-linux-gnu.so',
   'EXTENSION'),
  ('lib-dynload/_posixsubprocess.cpython-312-x86_64-linux-gnu.so',
   '/home/gitpod/.pyenv/versions/3.12.1/lib/python3.12/lib-dynload/_posixsubprocess.cpython-312-x86_64-linux-gnu.so',
   'EXTENSION'),
  ('lib-dynload/fcntl.cpython-312-x86_64-linux-gnu.so',
   '/home/gitpod/.pyenv/versions/3.12.1/lib/python3.12/lib-dynload/fcntl.cpython-312-x86_64-linux-gnu.so',
   'EXTENSION'),
  ('lib-dynload/_pickle.cpython-312-x86_64-linux-gnu.so',
   '/home/gitpod/.pyenv/versions/3.12.1/lib/python3.12/lib-dynload/_pickle.cpython-312-x86_64-linux-gnu.so',
   'EXTENSION'),
  ('lib-dynload/binascii.cpython-312-x86_64-linux-gnu.so',
   '/home/gitpod/.pyenv/versions/3.12.1/lib/python3.12/lib-dynload/binascii.cpython-312-x86_64-linux-gnu.so',
   'EXTENSION'),
  ('lib-dynload/resource.cpython-312-x86_64-linux-gnu.so',
   '/home/gitpod/.pyenv/versions/3.12.1/lib/python3.12/lib-dynload/resource.cpython-312-x86_64-linux-gnu.so',
   'EXTENSION'),
  ('lib-dynload/_lzma.cpython-312-x86_64-linux-gnu.so',
   '/home/gitpod/.pyenv/versions/3.12.1/lib/python3.12/lib-dynload/_lzma.cpython-312-x86_64-linux-gnu.so',
   'EXTENSION'),
  ('lib-dynload/_bz2.cpython-312-x86_64-linux-gnu.so',
   '/home/gitpod/.pyenv/versions/3.12.1/lib/python3.12/lib-dynload/_bz2.cpython-312-x86_64-linux-gnu.so',
   'EXTENSION'),
  ('lib-dynload/unicodedata.cpython-312-x86_64-linux-gnu.so',
   '/home/gitpod/.pyenv/versions/3.12.1/lib/python3.12/lib-dynload/unicodedata.cpython-312-x86_64-linux-gnu.so',
   'EXTENSION'),
  ('lib-dynload/_datetime.cpython-312-x86_64-linux-gnu.so',
   '/home/gitpod/.pyenv/versions/3.12.1/lib/python3.12/lib-dynload/_datetime.cpython-312-x86_64-linux-gnu.so',
   'EXTENSION'),
  ('lib-dynload/array.cpython-312-x86_64-linux-gnu.so',
   '/home/gitpod/.pyenv/versions/3.12.1/lib/python3.12/lib-dynload/array.cpython-312-x86_64-linux-gnu.so',
   'EXTENSION'),
  ('lib-dynload/_socket.cpython-312-x86_64-linux-gnu.so',
   '/home/gitpod/.pyenv/versions/3.12.1/lib/python3.12/lib-dynload/_socket.cpython-312-x86_64-linux-gnu.so',
   'EXTENSION'),
  ('lib-dynload/_statistics.cpython-312-x86_64-linux-gnu.so',
   '/home/gitpod/.pyenv/versions/3.12.1/lib/python3.12/lib-dynload/_statistics.cpython-312-x86_64-linux-gnu.so',
   'EXTENSION'),
  ('lib-dynload/_contextvars.cpython-312-x86_64-linux-gnu.so',
   '/home/gitpod/.pyenv/versions/3.12.1/lib/python3.12/lib-dynload/_contextvars.cpython-312-x86_64-linux-gnu.so',
   'EXTENSION'),
  ('lib-dynload/_decimal.cpython-312-x86_64-linux-gnu.so',
   '/home/gitpod/.pyenv/versions/3.12.1/lib/python3.12/lib-dynload/_decimal.cpython-312-x86_64-linux-gnu.so',
   'EXTENSION'),
  ('lib-dynload/_hashlib.cpython-312-x86_64-linux-gnu.so',
   '/home/gitpod/.pyenv/versions/3.12.1/lib/python3.12/lib-dynload/_hashlib.cpython-312-x86_64-linux-gnu.so',
   'EXTENSION'),
  ('lib-dynload/_sha3.cpython-312-x86_64-linux-gnu.so',
   '/home/gitpod/.pyenv/versions/3.12.1/lib/python3.12/lib-dynload/_sha3.cpython-312-x86_64-linux-gnu.so',
   'EXTENSION'),
  ('lib-dynload/_blake2.cpython-312-x86_64-linux-gnu.so',
   '/home/gitpod/.pyenv/versions/3.12.1/lib/python3.12/lib-dynload/_blake2.cpython-312-x86_64-linux-gnu.so',
   'EXTENSION'),
  ('lib-dynload/_md5.cpython-312-x86_64-linux-gnu.so',
   '/home/gitpod/.pyenv/versions/3.12.1/lib/python3.12/lib-dynload/_md5.cpython-312-x86_64-linux-gnu.so',
   'EXTENSION'),
  ('lib-dynload/_sha1.cpython-312-x86_64-linux-gnu.so',
   '/home/gitpod/.pyenv/versions/3.12.1/lib/python3.12/lib-dynload/_sha1.cpython-312-x86_64-linux-gnu.so',
   'EXTENSION'),
  ('lib-dynload/_sha2.cpython-312-x86_64-linux-gnu.so',
   '/home/gitpod/.pyenv/versions/3.12.1/lib/python3.12/lib-dynload/_sha2.cpython-312-x86_64-linux-gnu.so',
   'EXTENSION'),
  ('lib-dynload/_random.cpython-312-x86_64-linux-gnu.so',
   '/home/gitpod/.pyenv/versions/3.12.1/lib/python3.12/lib-dynload/_random.cpython-312-x86_64-linux-gnu.so',
   'EXTENSION'),
  ('lib-dynload/_bisect.cpython-312-x86_64-linux-gnu.so',
   '/home/gitpod/.pyenv/versions/3.12.1/lib/python3.12/lib-dynload/_bisect.cpython-312-x86_64-linux-gnu.so',
   'EXTENSION'),
  ('lib-dynload/_ctypes.cpython-312-x86_64-linux-gnu.so',
   '/home/gitpod/.pyenv/versions/3.12.1/lib/python3.12/lib-dynload/_ctypes.cpython-312-x86_64-linux-gnu.so',
   'EXTENSION'),
  ('lib-dynload/_queue.cpython-312-x86_64-linux-gnu.so',
   '/home/gitpod/.pyenv/versions/3.12.1/lib/python3.12/lib-dynload/_queue.cpython-312-x86_64-linux-gnu.so',
   'EXTENSION'),
  ('lib-dynload/_csv.cpython-312-x86_64-linux-gnu.so',
   '/home/gitpod/.pyenv/versions/3.12.1/lib/python3.12/lib-dynload/_csv.cpython-312-x86_64-linux-gnu.so',
   'EXTENSION'),
  ('lib-dynload/_opcode.cpython-312-x86_64-linux-gnu.so',
   '/home/gitpod/.pyenv/versions/3.12.1/lib/python3.12/lib-dynload/_opcode.cpython-312-x86_64-linux-gnu.so',
   'EXTENSION'),
  ('lib-dynload/termios.cpython-312-x86_64-linux-gnu.so',
   '/home/gitpod/.pyenv/versions/3.12.1/lib/python3.12/lib-dynload/termios.cpython-312-x86_64-linux-gnu.so',
   'EXTENSION'),
  ('lib-dynload/_ssl.cpython-312-x86_64-linux-gnu.so',
   '/home/gitpod/.pyenv/versions/3.12.1/lib/python3.12/lib-dynload/_ssl.cpython-312-x86_64-linux-gnu.so',
   'EXTENSION'),
  ('lib-dynload/pyexpat.cpython-312-x86_64-linux-gnu.so',
   '/home/gitpod/.pyenv/versions/3.12.1/lib/python3.12/lib-dynload/pyexpat.cpython-312-x86_64-linux-gnu.so',
   'EXTENSION'),
  ('lib-dynload/readline.cpython-312-x86_64-linux-gnu.so',
   '/home/gitpod/.pyenv/versions/3.12.1/lib/python3.12/lib-dynload/readline.cpython-312-x86_64-linux-gnu.so',
   'EXTENSION'),
  ('lib-dynload/mmap.cpython-312-x86_64-linux-gnu.so',
   '/home/gitpod/.pyenv/versions/3.12.1/lib/python3.12/lib-dynload/mmap.cpython-312-x86_64-linux-gnu.so',
   'EXTENSION'),
  ('lib-dynload/_posixshmem.cpython-312-x86_64-linux-gnu.so',
   '/home/gitpod/.pyenv/versions/3.12.1/lib/python3.12/lib-dynload/_posixshmem.cpython-312-x86_64-linux-gnu.so',
   'EXTENSION'),
  ('lib-dynload/_multiprocessing.cpython-312-x86_64-linux-gnu.so',
   '/home/gitpod/.pyenv/versions/3.12.1/lib/python3.12/lib-dynload/_multiprocessing.cpython-312-x86_64-linux-gnu.so',
   'EXTENSION'),
  ('lib-dynload/_asyncio.cpython-312-x86_64-linux-gnu.so',
   '/home/gitpod/.pyenv/versions/3.12.1/lib/python3.12/lib-dynload/_asyncio.cpython-312-x86_64-linux-gnu.so',
   'EXTENSION'),
  ('lib-dynload/syslog.cpython-312-x86_64-linux-gnu.so',
   '/home/gitpod/.pyenv/versions/3.12.1/lib/python3.12/lib-dynload/syslog.cpython-312-x86_64-linux-gnu.so',
   'EXTENSION'),
  ('lib-dynload/_json.cpython-312-x86_64-linux-gnu.so',
   '/home/gitpod/.pyenv/versions/3.12.1/lib/python3.12/lib-dynload/_json.cpython-312-x86_64-linux-gnu.so',
   'EXTENSION'),
  ('lib-dynload/_heapq.cpython-312-x86_64-linux-gnu.so',
   '/home/gitpod/.pyenv/versions/3.12.1/lib/python3.12/lib-dynload/_heapq.cpython-312-x86_64-linux-gnu.so',
   'EXTENSION'),
  ('lib-dynload/_multibytecodec.cpython-312-x86_64-linux-gnu.so',
   '/home/gitpod/.pyenv/versions/3.12.1/lib/python3.12/lib-dynload/_multibytecodec.cpython-312-x86_64-linux-gnu.so',
   'EXTENSION'),
  ('lib-dynload/_codecs_jp.cpython-312-x86_64-linux-gnu.so',
   '/home/gitpod/.pyenv/versions/3.12.1/lib/python3.12/lib-dynload/_codecs_jp.cpython-312-x86_64-linux-gnu.so',
   'EXTENSION'),
  ('lib-dynload/_codecs_kr.cpython-312-x86_64-linux-gnu.so',
   '/home/gitpod/.pyenv/versions/3.12.1/lib/python3.12/lib-dynload/_codecs_kr.cpython-312-x86_64-linux-gnu.so',
   'EXTENSION'),
  ('lib-dynload/_codecs_iso2022.cpython-312-x86_64-linux-gnu.so',
   '/home/gitpod/.pyenv/versions/3.12.1/lib/python3.12/lib-dynload/_codecs_iso2022.cpython-312-x86_64-linux-gnu.so',
   'EXTENSION'),
  ('lib-dynload/_codecs_cn.cpython-312-x86_64-linux-gnu.so',
   '/home/gitpod/.pyenv/versions/3.12.1/lib/python3.12/lib-dynload/_codecs_cn.cpython-312-x86_64-linux-gnu.so',
   'EXTENSION'),
  ('lib-dynload/_codecs_tw.cpython-312-x86_64-linux-gnu.so',
   '/home/gitpod/.pyenv/versions/3.12.1/lib/python3.12/lib-dynload/_codecs_tw.cpython-312-x86_64-linux-gnu.so',
   'EXTENSION'),
  ('lib-dynload/_codecs_hk.cpython-312-x86_64-linux-gnu.so',
   '/home/gitpod/.pyenv/versions/3.12.1/lib/python3.12/lib-dynload/_codecs_hk.cpython-312-x86_64-linux-gnu.so',
   'EXTENSION'),
  ('lib-dynload/_uuid.cpython-312-x86_64-linux-gnu.so',
   '/home/gitpod/.pyenv/versions/3.12.1/lib/python3.12/lib-dynload/_uuid.cpython-312-x86_64-linux-gnu.so',
   'EXTENSION'),
  ('numpy/core/_multiarray_tests.cpython-312-x86_64-linux-gnu.so',
   '/workspace/.pyenv_mirror/user/current/lib/python3.12/site-packages/numpy/core/_multiarray_tests.cpython-312-x86_64-linux-gnu.so',
   'EXTENSION'),
  ('numpy/core/_multiarray_umath.cpython-312-x86_64-linux-gnu.so',
   '/workspace/.pyenv_mirror/user/current/lib/python3.12/site-packages/numpy/core/_multiarray_umath.cpython-312-x86_64-linux-gnu.so',
   'EXTENSION'),
  ('psutil/_psutil_posix.abi3.so',
   '/home/gitpod/.pyenv/versions/3.12.1/lib/python3.12/site-packages/psutil/_psutil_posix.abi3.so',
   'EXTENSION'),
  ('psutil/_psutil_linux.abi3.so',
   '/home/gitpod/.pyenv/versions/3.12.1/lib/python3.12/site-packages/psutil/_psutil_linux.abi3.so',
   'EXTENSION'),
  ('lib-dynload/_curses.cpython-312-x86_64-linux-gnu.so',
   '/home/gitpod/.pyenv/versions/3.12.1/lib/python3.12/lib-dynload/_curses.cpython-312-x86_64-linux-gnu.so',
   'EXTENSION'),
  ('numpy/linalg/_umath_linalg.cpython-312-x86_64-linux-gnu.so',
   '/workspace/.pyenv_mirror/user/current/lib/python3.12/site-packages/numpy/linalg/_umath_linalg.cpython-312-x86_64-linux-gnu.so',
   'EXTENSION'),
  ('numpy/random/mtrand.cpython-312-x86_64-linux-gnu.so',
   '/workspace/.pyenv_mirror/user/current/lib/python3.12/site-packages/numpy/random/mtrand.cpython-312-x86_64-linux-gnu.so',
   'EXTENSION'),
  ('numpy/random/_sfc64.cpython-312-x86_64-linux-gnu.so',
   '/workspace/.pyenv_mirror/user/current/lib/python3.12/site-packages/numpy/random/_sfc64.cpython-312-x86_64-linux-gnu.so',
   'EXTENSION'),
  ('numpy/random/_philox.cpython-312-x86_64-linux-gnu.so',
   '/workspace/.pyenv_mirror/user/current/lib/python3.12/site-packages/numpy/random/_philox.cpython-312-x86_64-linux-gnu.so',
   'EXTENSION'),
  ('numpy/random/_pcg64.cpython-312-x86_64-linux-gnu.so',
   '/workspace/.pyenv_mirror/user/current/lib/python3.12/site-packages/numpy/random/_pcg64.cpython-312-x86_64-linux-gnu.so',
   'EXTENSION'),
  ('numpy/random/_mt19937.cpython-312-x86_64-linux-gnu.so',
   '/workspace/.pyenv_mirror/user/current/lib/python3.12/site-packages/numpy/random/_mt19937.cpython-312-x86_64-linux-gnu.so',
   'EXTENSION'),
  ('numpy/random/bit_generator.cpython-312-x86_64-linux-gnu.so',
   '/workspace/.pyenv_mirror/user/current/lib/python3.12/site-packages/numpy/random/bit_generator.cpython-312-x86_64-linux-gnu.so',
   'EXTENSION'),
  ('numpy/random/_generator.cpython-312-x86_64-linux-gnu.so',
   '/workspace/.pyenv_mirror/user/current/lib/python3.12/site-packages/numpy/random/_generator.cpython-312-x86_64-linux-gnu.so',
   'EXTENSION'),
  ('numpy/random/_bounded_integers.cpython-312-x86_64-linux-gnu.so',
   '/workspace/.pyenv_mirror/user/current/lib/python3.12/site-packages/numpy/random/_bounded_integers.cpython-312-x86_64-linux-gnu.so',
   'EXTENSION'),
  ('numpy/random/_common.cpython-312-x86_64-linux-gnu.so',
   '/workspace/.pyenv_mirror/user/current/lib/python3.12/site-packages/numpy/random/_common.cpython-312-x86_64-linux-gnu.so',
   'EXTENSION'),
  ('numpy/fft/_pocketfft_internal.cpython-312-x86_64-linux-gnu.so',
   '/workspace/.pyenv_mirror/user/current/lib/python3.12/site-packages/numpy/fft/_pocketfft_internal.cpython-312-x86_64-linux-gnu.so',
   'EXTENSION'),
  ('yaml/_yaml.cpython-312-x86_64-linux-gnu.so',
   '/home/gitpod/.pyenv/versions/3.12.1/lib/python3.12/site-packages/yaml/_yaml.cpython-312-x86_64-linux-gnu.so',
   'EXTENSION'),
  ('pyaudio/_portaudio.cpython-312-x86_64-linux-gnu.so',
   '/workspace/.pyenv_mirror/user/current/lib/python3.12/site-packages/pyaudio/_portaudio.cpython-312-x86_64-linux-gnu.so',
   'EXTENSION'),
  ('_cffi_backend.cpython-312-x86_64-linux-gnu.so',
   '/home/gitpod/.pyenv/versions/3.12.1/lib/python3.12/site-packages/_cffi_backend.cpython-312-x86_64-linux-gnu.so',
   'EXTENSION'),
  ('cryptography/hazmat/bindings/_rust.abi3.so',
   '/home/gitpod/.pyenv/versions/3.12.1/lib/python3.12/site-packages/cryptography/hazmat/bindings/_rust.abi3.so',
   'EXTENSION'),
  ('charset_normalizer/md__mypyc.cpython-312-x86_64-linux-gnu.so',
   '/home/gitpod/.pyenv/versions/3.12.1/lib/python3.12/site-packages/charset_normalizer/md__mypyc.cpython-312-x86_64-linux-gnu.so',
   'EXTENSION'),
  ('charset_normalizer/md.cpython-312-x86_64-linux-gnu.so',
   '/home/gitpod/.pyenv/versions/3.12.1/lib/python3.12/site-packages/charset_normalizer/md.cpython-312-x86_64-linux-gnu.so',
   'EXTENSION'),
  ('lib-dynload/audioop.cpython-312-x86_64-linux-gnu.so',
   '/home/gitpod/.pyenv/versions/3.12.1/lib/python3.12/lib-dynload/audioop.cpython-312-x86_64-linux-gnu.so',
   'EXTENSION'),
  ('libvorbis.so.0', '/lib/x86_64-linux-gnu/libvorbis.so.0', 'BINARY'),
  ('libsonic.so.0', '/lib/x86_64-linux-gnu/libsonic.so.0', 'BINARY'),
  ('libX11-xcb.so.1', '/lib/x86_64-linux-gnu/libX11-xcb.so.1', 'BINARY'),
  ('libportaudio.so.2', '/lib/x86_64-linux-gnu/libportaudio.so.2', 'BINARY'),
  ('libopus.so.0', '/lib/x86_64-linux-gnu/libopus.so.0', 'BINARY'),
  ('libpulse-simple.so.0',
   '/lib/x86_64-linux-gnu/libpulse-simple.so.0',
   'BINARY'),
  ('libdbus-1.so.3', '/lib/x86_64-linux-gnu/libdbus-1.so.3', 'BINARY'),
  ('libasyncns.so.0', '/lib/x86_64-linux-gnu/libasyncns.so.0', 'BINARY'),
  ('libsystemd.so.0', '/lib/x86_64-linux-gnu/libsystemd.so.0', 'BINARY'),
  ('libapparmor.so.1', '/lib/x86_64-linux-gnu/libapparmor.so.1', 'BINARY'),
  ('libpulse.so.0', '/lib/x86_64-linux-gnu/libpulse.so.0', 'BINARY'),
  ('libsndfile.so.1', '/lib/x86_64-linux-gnu/libsndfile.so.1', 'BINARY'),
  ('libvorbisenc.so.2', '/lib/x86_64-linux-gnu/libvorbisenc.so.2', 'BINARY'),
  ('liblzma.so.5', '/lib/x86_64-linux-gnu/liblzma.so.5', 'BINARY'),
  ('libgcrypt.so.20', '/lib/x86_64-linux-gnu/libgcrypt.so.20', 'BINARY'),
  ('libbsd.so.0', '/lib/x86_64-linux-gnu/libbsd.so.0', 'BINARY'),
  ('libzstd.so.1', '/lib/x86_64-linux-gnu/libzstd.so.1', 'BINARY'),
  ('libjack.so.0', '/lib/x86_64-linux-gnu/libjack.so.0', 'BINARY'),
  ('libFLAC.so.8', '/lib/x86_64-linux-gnu/libFLAC.so.8', 'BINARY'),
  ('liblz4.so.1', '/lib/x86_64-linux-gnu/liblz4.so.1', 'BINARY'),
  ('libcap.so.2', '/lib/x86_64-linux-gnu/libcap.so.2', 'BINARY'),
  ('libmd.so.0', '/lib/x86_64-linux-gnu/libmd.so.0', 'BINARY'),
  ('libX11.so.6', '/lib/x86_64-linux-gnu/libX11.so.6', 'BINARY'),
  ('libdb-5.3.so', '/lib/x86_64-linux-gnu/libdb-5.3.so', 'BINARY'),
  ('libogg.so.0', '/lib/x86_64-linux-gnu/libogg.so.0', 'BINARY'),
  ('libgpg-error.so.0', '/lib/x86_64-linux-gnu/libgpg-error.so.0', 'BINARY'),
  ('libpulsecommon-15.99.so',
   '/usr/lib/x86_64-linux-gnu/pulseaudio/libpulsecommon-15.99.so',
   'BINARY'),
  ('libXau.so.6', '/lib/x86_64-linux-gnu/libXau.so.6', 'BINARY'),
  ('libasound.so.2', '/lib/x86_64-linux-gnu/libasound.so.2', 'BINARY'),
  ('libXdmcp.so.6', '/lib/x86_64-linux-gnu/libXdmcp.so.6', 'BINARY'),
  ('libz.so.1', '/lib/x86_64-linux-gnu/libz.so.1', 'BINARY'),
  ('libbz2.so.1.0', '/lib/x86_64-linux-gnu/libbz2.so.1.0', 'BINARY'),
  ('libcrypto.so.3', '/lib/x86_64-linux-gnu/libcrypto.so.3', 'BINARY'),
  ('libffi.so.8', '/lib/x86_64-linux-gnu/libffi.so.8', 'BINARY'),
  ('libssl.so.3', '/lib/x86_64-linux-gnu/libssl.so.3', 'BINARY'),
  ('libreadline.so.8', '/lib/x86_64-linux-gnu/libreadline.so.8', 'BINARY'),
  ('libtinfo.so.6', '/lib/x86_64-linux-gnu/libtinfo.so.6', 'BINARY'),
  ('libuuid.so.1', '/lib/x86_64-linux-gnu/libuuid.so.1', 'BINARY'),
  ('libgcc_s.so.1', '/lib/x86_64-linux-gnu/libgcc_s.so.1', 'BINARY'),
  ('numpy.libs/libopenblas64_p-r0-0cf96a72.3.23.dev.so',
   '/workspace/.pyenv_mirror/user/current/lib/python3.12/site-packages/numpy.libs/libopenblas64_p-r0-0cf96a72.3.23.dev.so',
   'BINARY'),
  ('numpy.libs/libgfortran-040039e1.so.5.0.0',
   '/workspace/.pyenv_mirror/user/current/lib/python3.12/site-packages/numpy.libs/libgfortran-040039e1.so.5.0.0',
   'BINARY'),
  ('numpy.libs/libquadmath-96973f99.so.0.0.0',
   '/workspace/.pyenv_mirror/user/current/lib/python3.12/site-packages/numpy.libs/libquadmath-96973f99.so.0.0.0',
   'BINARY'),
  ('libncursesw.so.6', '/lib/x86_64-linux-gnu/libncursesw.so.6', 'BINARY'),
  ('base_library.zip',
   '/workspace/Jarvis-v1/voice-assistant/build/voice_assistant/base_library.zip',
   'DATA'),
  ('speech_recognition/pocketsphinx-data/en-US/acoustic-model/transition_matrices',
   '/workspace/.pyenv_mirror/user/current/lib/python3.12/site-packages/speech_recognition/pocketsphinx-data/en-US/acoustic-model/transition_matrices',
   'DATA'),
  ('speech_recognition/pocketsphinx-data/en-US/acoustic-model/README',
   '/workspace/.pyenv_mirror/user/current/lib/python3.12/site-packages/speech_recognition/pocketsphinx-data/en-US/acoustic-model/README',
   'DATA'),
  ('speech_recognition/pocketsphinx-data/en-US/acoustic-model/means',
   '/workspace/.pyenv_mirror/user/current/lib/python3.12/site-packages/speech_recognition/pocketsphinx-data/en-US/acoustic-model/means',
   'DATA'),
  ('speech_recognition/pocketsphinx-data/en-US/acoustic-model/sendump',
   '/workspace/.pyenv_mirror/user/current/lib/python3.12/site-packages/speech_recognition/pocketsphinx-data/en-US/acoustic-model/sendump',
   'DATA'),
  ('speech_recognition/flac-mac',
   '/workspace/.pyenv_mirror/user/current/lib/python3.12/site-packages/speech_recognition/flac-mac',
   'DATA'),
  ('speech_recognition/pocketsphinx-data/en-US/language-model.lm.bin',
   '/workspace/.pyenv_mirror/user/current/lib/python3.12/site-packages/speech_recognition/pocketsphinx-data/en-US/language-model.lm.bin',
   'DATA'),
  ('speech_recognition/flac-win32.exe',
   '/workspace/.pyenv_mirror/user/current/lib/python3.12/site-packages/speech_recognition/flac-win32.exe',
   'DATA'),
  ('speech_recognition/pocketsphinx-data/en-US/acoustic-model/noisedict',
   '/workspace/.pyenv_mirror/user/current/lib/python3.12/site-packages/speech_recognition/pocketsphinx-data/en-US/acoustic-model/noisedict',
   'DATA'),
  ('speech_recognition/pocketsphinx-data/en-US/acoustic-model/mdef',
   '/workspace/.pyenv_mirror/user/current/lib/python3.12/site-packages/speech_recognition/pocketsphinx-data/en-US/acoustic-model/mdef',
   'DATA'),
  ('speech_recognition/pocketsphinx-data/en-US/pronounciation-dictionary.dict',
   '/workspace/.pyenv_mirror/user/current/lib/python3.12/site-packages/speech_recognition/pocketsphinx-data/en-US/pronounciation-dictionary.dict',
   'DATA'),
  ('speech_recognition/pocketsphinx-data/en-US/LICENSE.txt',
   '/workspace/.pyenv_mirror/user/current/lib/python3.12/site-packages/speech_recognition/pocketsphinx-data/en-US/LICENSE.txt',
   'DATA'),
  ('speech_recognition/pocketsphinx-data/en-US/acoustic-model/feat.params',
   '/workspace/.pyenv_mirror/user/current/lib/python3.12/site-packages/speech_recognition/pocketsphinx-data/en-US/acoustic-model/feat.params',
   'DATA'),
  ('speech_recognition/pocketsphinx-data/en-US/acoustic-model/variances',
   '/workspace/.pyenv_mirror/user/current/lib/python3.12/site-packages/speech_recognition/pocketsphinx-data/en-US/acoustic-model/variances',
   'DATA'),
  ('importlib_metadata-7.0.0.dist-info/LICENSE',
   '/home/gitpod/.pyenv/versions/3.12.1/lib/python3.12/site-packages/importlib_metadata-7.0.0.dist-info/LICENSE',
   'DATA'),
  ('importlib_metadata-7.0.0.dist-info/top_level.txt',
   '/home/gitpod/.pyenv/versions/3.12.1/lib/python3.12/site-packages/importlib_metadata-7.0.0.dist-info/top_level.txt',
   'DATA'),
  ('importlib_metadata-7.0.0.dist-info/METADATA',
   '/home/gitpod/.pyenv/versions/3.12.1/lib/python3.12/site-packages/importlib_metadata-7.0.0.dist-info/METADATA',
   'DATA'),
  ('importlib_metadata-7.0.0.dist-info/INSTALLER',
   '/home/gitpod/.pyenv/versions/3.12.1/lib/python3.12/site-packages/importlib_metadata-7.0.0.dist-info/INSTALLER',
   'DATA'),
  ('importlib_metadata-7.0.0.dist-info/RECORD',
   '/home/gitpod/.pyenv/versions/3.12.1/lib/python3.12/site-packages/importlib_metadata-7.0.0.dist-info/RECORD',
   'DATA'),
  ('importlib_metadata-7.0.0.dist-info/WHEEL',
   '/home/gitpod/.pyenv/versions/3.12.1/lib/python3.12/site-packages/importlib_metadata-7.0.0.dist-info/WHEEL',
   'DATA'),
  ('certifi/py.typed',
   '/home/gitpod/.pyenv/versions/3.12.1/lib/python3.12/site-packages/certifi/py.typed',
   'DATA'),
  ('certifi/cacert.pem',
   '/home/gitpod/.pyenv/versions/3.12.1/lib/python3.12/site-packages/certifi/cacert.pem',
   'DATA'),
  ('cryptography-41.0.7.dist-info/WHEEL',
   '/home/gitpod/.pyenv/versions/3.12.1/lib/python3.12/site-packages/cryptography-41.0.7.dist-info/WHEEL',
   'DATA'),
  ('cryptography-41.0.7.dist-info/INSTALLER',
   '/home/gitpod/.pyenv/versions/3.12.1/lib/python3.12/site-packages/cryptography-41.0.7.dist-info/INSTALLER',
   'DATA'),
  ('cryptography-41.0.7.dist-info/top_level.txt',
   '/home/gitpod/.pyenv/versions/3.12.1/lib/python3.12/site-packages/cryptography-41.0.7.dist-info/top_level.txt',
   'DATA'),
  ('cryptography-41.0.7.dist-info/LICENSE',
   '/home/gitpod/.pyenv/versions/3.12.1/lib/python3.12/site-packages/cryptography-41.0.7.dist-info/LICENSE',
   'DATA'),
  ('cryptography-41.0.7.dist-info/LICENSE.APACHE',
   '/home/gitpod/.pyenv/versions/3.12.1/lib/python3.12/site-packages/cryptography-41.0.7.dist-info/LICENSE.APACHE',
   'DATA'),
  ('cryptography-41.0.7.dist-info/RECORD',
   '/home/gitpod/.pyenv/versions/3.12.1/lib/python3.12/site-packages/cryptography-41.0.7.dist-info/RECORD',
   'DATA'),
  ('cryptography-41.0.7.dist-info/LICENSE.BSD',
   '/home/gitpod/.pyenv/versions/3.12.1/lib/python3.12/site-packages/cryptography-41.0.7.dist-info/LICENSE.BSD',
   'DATA'),
  ('cryptography-41.0.7.dist-info/METADATA',
   '/home/gitpod/.pyenv/versions/3.12.1/lib/python3.12/site-packages/cryptography-41.0.7.dist-info/METADATA',
   'DATA'),
  ('wheel-0.42.0.dist-info/RECORD',
   '/home/gitpod/.pyenv/versions/3.12.1/lib/python3.12/site-packages/wheel-0.42.0.dist-info/RECORD',
   'DATA'),
  ('wheel-0.42.0.dist-info/REQUESTED',
   '/home/gitpod/.pyenv/versions/3.12.1/lib/python3.12/site-packages/wheel-0.42.0.dist-info/REQUESTED',
   'DATA'),
  ('wheel-0.42.0.dist-info/LICENSE.txt',
   '/home/gitpod/.pyenv/versions/3.12.1/lib/python3.12/site-packages/wheel-0.42.0.dist-info/LICENSE.txt',
   'DATA'),
  ('wheel-0.42.0.dist-info/entry_points.txt',
   '/home/gitpod/.pyenv/versions/3.12.1/lib/python3.12/site-packages/wheel-0.42.0.dist-info/entry_points.txt',
   'DATA'),
  ('wheel-0.42.0.dist-info/METADATA',
   '/home/gitpod/.pyenv/versions/3.12.1/lib/python3.12/site-packages/wheel-0.42.0.dist-info/METADATA',
   'DATA'),
  ('wheel-0.42.0.dist-info/WHEEL',
   '/home/gitpod/.pyenv/versions/3.12.1/lib/python3.12/site-packages/wheel-0.42.0.dist-info/WHEEL',
   'DATA'),
  ('wheel-0.42.0.dist-info/INSTALLER',
   '/home/gitpod/.pyenv/versions/3.12.1/lib/python3.12/site-packages/wheel-0.42.0.dist-info/INSTALLER',
   'DATA'),
  ('libopenblas64_p-r0-0cf96a72.3.23.dev.so',
   'numpy.libs/libopenblas64_p-r0-0cf96a72.3.23.dev.so',
   'SYMLINK'),
  ('libgfortran-040039e1.so.5.0.0',
   'numpy.libs/libgfortran-040039e1.so.5.0.0',
   'SYMLINK'),
  ('libquadmath-96973f99.so.0.0.0',
   'numpy.libs/libquadmath-96973f99.so.0.0.0',
   'SYMLINK')],
 [],
 False,
 False,
 1704310882,
 [('run',
   '/workspace/.pyenv_mirror/user/current/lib/python3.12/site-packages/PyInstaller/bootloader/Linux-64bit-intel/run',
   'EXECUTABLE')],
 '/home/gitpod/.pyenv/versions/3.12.1/lib/libpython3.12.so.1.0')
